﻿'Private Sub Button4_Click(sender As Object, e As EventArgs) Handles Button4.Click

'    ' Dim convertimput As New ConvertInput


'    Dim myPath As String = TextBox1.Text
'    Dim fileToRun As String = ListBox1.SelectedValue
'    'Dim p As New Process



'    If (running = False) Then

'        RichTextBox1.Clear()



'        Dim info As New ProcessStartInfo With {
'                .UseShellExecute = False,
'                .CreateNoWindow = True,
'                .WindowStyle = ProcessWindowStyle.Normal,
'                .RedirectStandardError = True,
'                .RedirectStandardInput = True,
'                .RedirectStandardOutput = True,
'                .WorkingDirectory = TextBox1.Text,
'                .FileName = "C:\Program Files (x86)\Java\jdk1.8.0_172\bin\java.exe",
'                .Arguments = "-jar" & " " & oyster-3.6.0.jar"'& " " & "C: \Users\KrisEAnd\Downloads\IQ7348\Oyster3.6.0withDemos\" & ListBox1.SelectedValue
'              }
'        '.FileName = "C: \\Users\\KrisEAnd\\Downloads\\IQ7348\\Oyster3.6.0withDemos\\Oyster-v3.6.0.bat"
'        '.Arguments = vbCrLf & vbCr & ListBox1.SelectedValue
'        '.Arguments = vbCrLf & vbCr & ListBox1.SelectedValue
'        '.Arguments = """/K"" cd C:\Users\KrisEAnd\Downloads\IQ7348\Oyster3.6.0withDemos java -jar Oyster-3.6.0.jar" & vbLf & "pause" 'C:\\Users\\KrisEAnd\\Downloads\\IQ7348\\Oyster3.6.0withDemos\" & fileToRun
'        '.Arguments = """/K"" C:\\Users\\KrisEAnd\\Downloads\\IQ7348\Oyster3.6.0withDemos\\Oyster-v3.6.0.bat" 'C:\\Users\\KrisEAnd\\Downloads\\IQ7348\\Oyster3.6.0withDemos\" & fileToRun
'        '.FileName = "C:\\Users\\KrisEAnd\\Anaconda3\\envs\\tensorflow4\\python.exe"
'        ' .FileName = "C:\\Windows\\System32\\cmd.exe",
'        '.Arguments = """/K"" C:\\Users\\KrisEAnd\\Anaconda3\\Scripts\\activate.bat C:\\Users\\KrisEAnd\\Anaconda3"

'        ''/K' C:\\Users\\KrisEAnd\\Anaconda3\\Scripts\\activate.bat C:\\Users\\KrisEAnd\\Anaconda3"
'        '.FileName = "C:\\Users\\KrisEAnd\\Anaconda3\\envs\\tensorflow4\\python.exe",

'        p = Process.Start(info)

'        'p.WaitForInputIdle()

'        AddHandler p.OutputDataReceived, AddressOf consoleOutputHandler
'        AddHandler p.ErrorDataReceived, AddressOf consoleErrorHandler
'        p.BeginErrorReadLine()
'        p.BeginOutputReadLine()
'        p.StandardInput.WriteLine(fileToRun)
'        p.StandardInput.WriteLine(vbCrLf)
'        '' wait for the process to terminate 
'        'Thread.Sleep(1000)
'        'SetParent(p.MainWindowHandle, Me.Panel1.Handle)
'        '' Thread.Sleep(10000)
'        ''SendMessage(p.MainWindowHandle, WM_SYSCOMMAND, SC_MAXIMIZE, 0)
'        ''Thread.Sleep(1000)
'        ''p.WaitForExit()

'        ''  .Arguments = """/K"" java -jar C:\\Users\\KrisEAnd\\Downloads\\IQ7348\\Oyster3.6.0withDemos\\Oyster-3.6.0.jar" & vbLf & "pause" 'C:\\Users\\KrisEAnd\\Downloads\\IQ7348\\Oyster3.6.0withDemos\" & fileToRun
'        '' Dim str As String = fileToRun ' & vbCrLf


'        ''My.Computer.Keyboard.SendKeys(str, True)
'        'str = "Oyster-v3.6.0.bat" & vbCrLf

'        '''My.Computer.Keyboard.SendKeys(str, True)
'        'Dim str As String = fileToRun
'        '''Thread.Sleep(1000)E
'        'My.Computer.Keyboard.SendKeys(str, True)
'        'str = vbCrLf
'        'My.Computer.Keyboard.SendKeys(str, True)
'        'pID = p.Id
'        'running = True
'        'Create handles to redirect the Output and Error Output to asynchronous streams



'        'Dim output As String = p.StandardOutput.ReadToEnd
'        'Dim errout As String = p.StandardError.ReadToEnd
'        Thread.Sleep(5000)
'        ' p.WaitForExit()
'        p.Close()
'        'MsgBox(errout)
'        'MsgBox(output)
'        TabControl1.SelectedTab = Run
'    Else

'        TabControl1.SelectedTab = Run
'        Dim App As Process() = Process.GetProcessesByName("cmd.exe")
'        If App.Length > 0 Then
'            MsgBox("yes")
'            AppActivate(App(0).Id)
'        End If
'        AppActivate(pID)
'        Panel1.BringToFront()

'        Dim str As String = Nothing
'        Thread.Sleep(1000)
'        str = vbCrLf & "cls"
'        My.Computer.Keyboard.SendKeys(str, True)
'        str = "Oyster-v3.6.0.bat" & vbCrLf
'        My.Computer.Keyboard.SendKeys(str, True)
'        str = fileToRun & vbCrLf
'        Thread.Sleep(1000)
'        My.Computer.Keyboard.SendKeys(str, True)

'        '    Thread.Sleep(1000)

'        '    'SetParent(p.MainWindowHandle, Me.Panel1.Handle)
'        '    ' Thread.Sleep(10000)
'        '    'SendMessage(p.MainWindowHandle, WM_SYSCOMMAND, SC_MAXIMIZE, 0)


'    End If
'    '' SendMessage(p.MainWindowHandle, )
'    'Try
'    '    ' Dim sr As StreamWriter = p.StandardInput
'    '    Dim srr As StreamReader = New StreamReader("C:\Users\KrisEAnd\Anaconda3\Scripts\" & OutputFileNametxBx.Text)
'    '    Dim itsa As Integer = 1
'    '    Do While Not srr.EndOfStream
'    '        Dim str As String = srr.ReadLine() & vbCrLf

'    '        'sr.WriteLine(str)
'    '        'str = str.Replace("{", "{{}")
'    '        'str = str.Replace("}", "{}}")
'    '        str = str.Replace(")", "{)}")
'    '        str = str.Replace("(", "{(}")

'    '        'MsgBox(str)
'    '        My.Computer.Keyboard.SendKeys(str, True)
'    '        ' MsgBox(str)
'    '        itsa = itsa + 1
'    '    Loop
'    '    'MsgBox(itsa.ToString)
'    'Catch ex As Exception
'    '    MsgBox(ex.ToString)
'    'End Try

'    'sr.Write(New StreamReader("C:\\Users\\KrisEAnd\\Anaconda3\\Scripts\\californiaHousing.py"))



'    'Dim ProcID As Integer
'    '' Start the Calculator application, and store the process id.
'    'ProcID = Shell("C:\\Users\\KrisEAnd\\Anaconda3\\envs\\tensorflow4\\python.exe", AppWinStyle.NormalFocus, True)
'    '' Activate the Calculator application.
'    'AppActivate(ProcID)
'    ''SetParent(ProcID.MainWindowHandle, Me.Panel1.Handle)
'    '' Thread.Sleep(10000)
'    ''SendMessage(p.MainWindowHandle, WM_SYSCOMMAND, SC_MAXIMIZE, 0)

'    'Send the keystrokes to the Calculator application.
'    'Try
'    '    Dim sr As StreamReader = New StreamReader("C:\Users\KrisEAnd\Anaconda3\Scripts\out.py")
'    '    ' Dim sr As StreamReader = New StreamReader("C:\Users\KrisEAnd\Anaconda3\Scripts\californiaHousing2.py")
'    '    Do While Not sr.EndOfStream
'    '        Dim str As String = sr.ReadLine() & vbCrLf

'    '        'str = str.Replace("{", "{{}")
'    '        'str = str.Replace("}", "{}}")
'    '        str = str.Replace(")", "{)}")
'    '        str = str.Replace("(", "{(}")


'    '        'MsgBox(str)
'    'If (running) Then
'    '    Dim strme As String = "python C:\Users\KrisEAnd\Anaconda3\Scripts\" & OutputFileNametxBx.Text & vbCrLf
'    '    My.Computer.Keyboard.SendKeys(strme, True)
'    'Else
'    '    Dim strme As String = "activate tensorflow4" & vbCrLf
'    '    My.Computer.Keyboard.SendKeys(strme, True)
'    '    strme = "python C:\Users\KrisEAnd\Anaconda3\Scripts\" & OutputFileNametxBx.Text & vbCrLf
'    '    My.Computer.Keyboard.SendKeys(strme, True)
'    'End If

'    Try



'    Catch ex As Exception
'        MsgBox(ex.ToString)

'    End Try

'Dim myPath As String = TextBox1.Text
        'Dim fileToRun As String = ListBox1.SelectedValue
        'Dim p As New Process

        'Try
        '    RichTextBox1.Clear()

        '    Dim info As New ProcessStartInfo With {
        '        .UseShellExecute = False,
        '        .CreateNoWindow = True,
        '        .WindowStyle = ProcessWindowStyle.Normal,
        '        .RedirectStandardError = True,
        '        .RedirectStandardInput = True,
        '        .RedirectStandardOutput = True,
        '        .WorkingDirectory = TextBox1.Text,
        '        .FileName = "C:\windows\system32\cmd.exe"
        '      }

        '    p = Process.Start(info)

        '    AddHandler p.OutputDataReceived, AddressOf ConsoleOutputHandler
        '    AddHandler p.ErrorDataReceived, AddressOf ConsoleErrorHandler
        '    p.BeginErrorReadLine()
        '    p.BeginOutputReadLine()
        '    p.StandardInput.WriteLine("cd " & TextBox1.Text & " " & vbCrLf)
        '    p.StandardInput.WriteLine("java -jar oyster-3.6.0.jar" & " " & vbCrLf)
        '    p.StandardInput.WriteLine(fileToRun & " " & vbCrLf)

        '    Thread.Sleep(5000)

        '    p.Close()

        '    TabControl1.SelectedTab = Run

        'Catch ex As Exception
        '    MsgBox(ex.ToString)
        'End Try
'End Sub